…
Observations are the level of items in orders by user. There are user /
order variables – user ID, order ID, order day, and order hour. There
are also item variables – name, aisle, department, and some numeric
codes.

How many aisles, and which are most items from?

``` r
instacart %>% 
    count(aisle) %>% 
    arrange(desc(n))
```

    ## # A tibble: 134 x 2
    ##    aisle                              n
    ##    <chr>                          <int>
    ##  1 fresh vegetables              150609
    ##  2 fresh fruits                  150473
    ##  3 packaged vegetables fruits     78493
    ##  4 yogurt                         55240
    ##  5 packaged cheese                41699
    ##  6 water seltzer sparkling water  36617
    ##  7 milk                           32644
    ##  8 chips pretzels                 31269
    ##  9 soy lactosefree                26240
    ## 10 bread                          23635
    ## # ... with 124 more rows
…
    ## Parsed with column specification:
    ## cols(
    ##   .default = col_double(),
    ##   day = col_character()
    ## )

    ## See spec(...) for full column specifications.

``` r
accel_df
```

    ## # A tibble: 50,400 x 6
    ##     week day_id day    minute count weekend
    ##    <dbl>  <dbl> <fct>   <dbl> <dbl> <lgl>  
    ##  1     1      1 Friday      1  88.4 FALSE  
    ##  2     1      1 Friday      2  82.2 FALSE  
    ##  3     1      1 Friday      3  64.4 FALSE  
    ##  4     1      1 Friday      4  70.0 FALSE  
    ##  5     1      1 Friday      5  75.0 FALSE  
    ##  6     1      1 Friday      6  66.3 FALSE  
    ##  7     1      1 Friday      7  53.8 FALSE  
    ##  8     1      1 Friday      8  47.8 FALSE  
    ##  9     1      1 Friday      9  55.5 FALSE  
    ## 10     1      1 Friday     10  43.0 FALSE  
    ## # ... with 50,390 more rows
…
